<?xml version="1.0" encoding="UTF-8"?>
<svg width="47px" height="34px" viewBox="0 0 47 34" version="1.1" xmlns="http://www.w3.org/2000/svg" xmlns:xlink="http://www.w3.org/1999/xlink">
    <title>“</title>
    <g id="Page-1" stroke="none" stroke-width="1" fill="none" fill-rule="evenodd">
        <g id="Bootstrap-1140px-Copy-17" transform="translate(-787.000000, -3495.000000)" fill="#E2B085" fill-rule="nonzero">
            <path d="M796.16442,3529 C798.34097,3529 800.097484,3528.33333 801.433962,3527 C802.77044,3525.66667 803.438679,3523.88889 803.438679,3521.66667 C803.438679,3519.16162 802.178571,3517.06061 799.658356,3515.36364 C797.099955,3513.66667 795.820755,3512.09091 795.820755,3510.63636 C795.820755,3505.54545 799.811096,3502.07071 807.791779,3500.21212 L807.791779,3500.21212 L808.25,3495 C801.3385,3496.49495 796.068958,3499.34343 792.441375,3503.54545 C788.813792,3507.74747 787,3512.83838 787,3518.81818 C787,3521.84848 787.887803,3524.30303 789.66341,3526.18182 C791.439016,3528.06061 793.60602,3529 796.16442,3529 Z M821.631757,3529 C823.852477,3529 825.623311,3528.33333 826.944257,3527 C828.265203,3525.66667 828.925676,3523.88889 828.925676,3521.66667 C828.925676,3519.16162 827.662162,3517.06061 825.135135,3515.36364 C822.56982,3513.66667 821.287162,3512.09091 821.287162,3510.63636 C821.287162,3505.58586 825.288288,3502.11111 833.290541,3500.21212 L833.290541,3500.21212 L833.75,3495 C826.858108,3496.45455 821.593468,3499.27273 817.956081,3503.45455 C814.318694,3507.63636 812.5,3512.75758 812.5,3518.81818 C812.5,3521.84848 813.371059,3524.30303 815.113176,3526.18182 C816.855293,3528.06061 819.028153,3529 821.631757,3529 Z" id="“"></path>
        </g>
    </g>
</svg>